{
    "all-hls": {
        "branch": "master",
        "description": null,
        "homepage": "",
        "owner": "masaeedu",
        "repo": "all-hls",
        "rev": "37444886677c0ec549bfc38e08e4ef34c9681d33",
        "sha256": "107g8y1lm1ylr5rp07zjssl7nzy4l6jqd6pnsq9fkx00vccnbjsd",
        "type": "tarball",
        "url": "https://github.com/masaeedu/all-hls/archive/37444886677c0ec549bfc38e08e4ef34c9681d33.tar.gz",
        "url_template": "https://github.com/<owner>/<repo>/archive/<rev>.tar.gz"
    },
    "nixpkgs": {
        "branch": "nixpkgs-unstable",
        "description": "Nix Packages collection",
        "homepage": "",
        "owner": "NixOS",
        "repo": "nixpkgs",
        "rev": "61b42c2d0f2b3c92b97190b108074073e39b8e35",
        "sha256": "0lf24crx4z5rc2bqvbf4qhim5kjk3gv62yayznm5sg22wq9qc27b",
        "type": "tarball",
        "url": "https://github.com/NixOS/nixpkgs/archive/61b42c2d0f2b3c92b97190b108074073e39b8e35.tar.gz",
        "url_template": "https://github.com/<owner>/<repo>/archive/<rev>.tar.gz"
    }
}
